{
    "/assets/js/admin/reported_users/reported_users.js": "/assets/js/admin/reported_users/reported_users.js?id=dafeeca1ebfde212abab",
    "/assets/js/admin/roles/role.js": "/assets/js/admin/roles/role.js?id=28bd8d4bb212d3eb3870",
    "/assets/js/admin/users/edit_user.js": "/assets/js/admin/users/edit_user.js?id=b6315776b20cf50e61f1",
    "/assets/js/admin/users/user.js": "/assets/js/admin/users/user.js?id=43dc391fab0d62efc174",
    "/assets/js/app.js": "/assets/js/app.js?id=8f61cc85744da7852f6a",
    "/assets/css/style.css": "/assets/css/style.css?id=27c0a0d3591131c5b5e4",
    "/assets/css/font-awesome.css": "/assets/css/font-awesome.css?id=d1dc735d91e406afc7b4",
    "/assets/css/admin_panel.css": "/assets/css/admin_panel.css?id=7a9c37e5227cd0a1b913",
    "/assets/css/landing-page-style.css": "/assets/css/landing-page-style.css?id=a517123ebf502ffded67",
    "/assets/css/new-conversation.css": "/assets/css/new-conversation.css?id=fc1b8ceab6f415a32d46",
    "/assets/js/auth-forms.js": "/assets/js/auth-forms.js?id=522f37961ee253fd8328",
    "/assets/js/chat.js": "/assets/js/chat.js?id=daf5383955c540bec8aa",
    "/assets/js/custom.js": "/assets/js/custom.js?id=b375a27b990fa41fb1e6",
    "/assets/js/custom-datatables.js": "/assets/js/custom-datatables.js?id=5ab172026c97a7a79768",
    "/assets/js/notification.js": "/assets/js/notification.js?id=ab64741282e14be137de",
    "/assets/js/profile.js": "/assets/js/profile.js?id=ddb6f5549977ba7a5d28",
    "/assets/js/set-user-on-off.js": "/assets/js/set-user-on-off.js?id=093b7e7c15213925d724",
    "/assets/js/set_user_status.js": "/assets/js/set_user_status.js?id=a608f80a77bf76e57e17",
    "/assets/css/video-js.css": "/assets/css/video-js.css?id=9d2c20f32d2509c50bdc",
    "/assets/css/coreui.min.css": "/assets/css/coreui.min.css?id=54756a4b5e9f80465347",
    "/assets/css/bootstrap.min.css": "/assets/css/bootstrap.min.css?id=7cc40c199d128af6b01e",
    "/assets/css/simple-line-icons.css": "/assets/css/simple-line-icons.css?id=093ca662394ed698fdb5",
    "/assets/css/jquery.toast.min.css": "/assets/css/jquery.toast.min.css?id=be8a6c1b1899c2ce48fd",
    "/assets/js/jquery.min.js": "/assets/js/jquery.min.js?id=220afd743d9e9643852e",
    "/assets/js/video.min.js": "/assets/js/video.min.js?id=ef5d1f1ca1c71e91bbca",
    "/assets/js/popper.min.js": "/assets/js/popper.min.js?id=1022eaf388cc780bcfeb",
    "/assets/js/coreui.min.js": "/assets/js/coreui.min.js?id=370739a5cbc6bd615091",
    "/assets/js/perfect-scrollbar.min.js": "/assets/js/perfect-scrollbar.min.js?id=4707a5fde2e52a52c114",
    "/assets/js/bootstrap.min.js": "/assets/js/bootstrap.min.js?id=61f338f870fcd0ff4636",
    "/assets/js/jquery.toast.min.js": "/assets/js/jquery.toast.min.js?id=076931b6313245f825e7",
    "/assets/js/emojione.min.js": "/assets/js/emojione.min.js?id=ef5ee5dd039a2cebdbad",
    "/assets/js/sweetalert2.all.min.js": "/assets/js/sweetalert2.all.min.js?id=0cb301ac3c4916654441"
}
